{
  "music": [
    {
      "id": 1,
      "name": "Album 1",
      "price": 129900000,
      "imgName": "Album 1.png"
    },
    {
      "id": 2,
      "name": "Album 2",
      "price": 1499,
      "imgName": "Album 2.png"
    },
    {
      "id": 3,
      "name": "Album 3",
      "price": 9.99,
      "imgName": "Album 3.png"
    },
    {
      "id": 4,
      "name": "Album 4",
      "price": 19.99,
      "imgName": "Album 4.png"
    }
  ],
  "merch": [
    {
      "id": 5,
      "name": "T-Shirt",
      "price": 1999,
      "imgName": "Shirt.png"
    },
    {
      "id": 6,
      "name": "Coffee Cup",
      "price": 699,
      "imgName": "Coffee.png"
    }

  ]
}
